YODA/waves/alu_tb.vcd
$date
	Sun May  3 01:09:35 2026
$end
$version
	Icarus Verilog
$end
$timescale
	1ps
$end
$scope module ALU_tb $end
$var wire 1 ! zero $end
$var wire 16 " result [15:0] $end
$var reg 16 # a [15:0] $end
$var reg 3 $ alu_control [2:0] $end
$var reg 16 % b [15:0] $end
$var reg 1 & vector_mode $end
$var integer 32 ' fail_count [31:0] $end
$var integer 32 ( test_id [31:0] $end
$scope module uut $end
$var wire 16 ) a [15:0] $end
$var wire 3 * alu_control [2:0] $end
$var wire 16 + b [15:0] $end
$var wire 1 & vector_mode $end
$var wire 1 ! zero $end
$var reg 16 , result [15:0] $end
$upscope $end
$scope task check_result $end
$var reg 16 - expected [15:0] $end
$var reg 16 . got [15:0] $end
$var reg 64 / id [63:0] $end
$upscope $end
$scope task check_zero $end
$var reg 1 0 expected $end
$var reg 1 1 got $end
$var reg 64 2 id [63:0] $end
$upscope $end
$upscope $end
$enddefinitions $end
$comment Show the parameter values. $end
$dumpall
$end
#0
$dumpvars
bx 2
x1
x0
bx /
bx .
bx -
b1111 ,
b101 +
b0 *
b1010 )
b1 (
b0 '
0&
b101 %
b0 $
b1010 #
b1111 "
0!
$end
#10000
1!
b0 "
b0 ,
b1 %
b1 +
b1111111111111111 #
b1111111111111111 )
b10 (
b1 /
b1111 -
b1111 .
#20000
b0 %
b0 +
b0 #
b0 )
b11 (
b10 /
b0 -
b0 .
#30000
0!
b101 "
b101 ,
b1 $
b1 *
b101 %
b101 +
b1010 #
b1010 )
b100 (
b11 /
#40000
1!
b0 "
b0 ,
b111 %
b111 +
b111 #
b111 )
b101 (
b100 2
00
01
b100 /
b101 -
b101 .
#50000
0!
b1111111111111011 "
b1111111111111011 ,
b1010 %
b1010 +
b101 #
b101 )
b110 (
b101 2
10
11
b101 /
b0 -
b0 .
#60000
b1111111111111111 "
b1111111111111111 ,
b10 $
b10 *
b0 #
b0 )
b111 (
b110 /
b1111111111111011 -
b1111111111111011 .
#70000
b101101001011010 "
b101101001011010 ,
b1010010110100101 #
b1010010110100101 )
b1000 (
b111 /
b1111111111111111 -
b1111111111111111 .
#80000
b10000 "
b10000 ,
b11 $
b11 *
b100 %
b100 +
b1 #
b1 )
b1001 (
b1000 /
b101101001011010 -
b101101001011010 .
#90000
b1100 "
b1100 ,
b10 %
b10 +
b11 #
b11 )
b1010 (
b1001 /
b10000 -
b10000 .
#100000
b1000 "
b1000 ,
b100 $
b100 *
b100 %
b100 +
b10000000 #
b10000000 )
b1011 (
b1010 /
b1100 -
b1100 .
#110000
1!
b0 "
b0 ,
b1 %
b1 +
b1 #
b1 )
b1100 (
b1011 /
b1000 -
b1000 .
#120000
0!
b111100001111 "
b111100001111 ,
b101 $
b101 *
b111100001111 %
b111100001111 +
b1111111111111111 #
b1111111111111111 )
b1101 (
b1100 /
b0 -
b0 .
#130000
1!
b0 "
b0 ,
b101010101010101 %
b101010101010101 +
b1010101010101010 #
b1010101010101010 )
b1110 (
b1101 /
b111100001111 -
b111100001111 .
#140000
0!
b1111111111111111 "
b1111111111111111 ,
b110 $
b110 *
b111100001111 %
b111100001111 +
b1111000011110000 #
b1111000011110000 )
b1111 (
b1110 /
b0 -
b0 .
#150000
b101010101010101 %
b101010101010101 +
b1010101010101010 #
b1010101010101010 )
b10000 (
b1111 /
b1111111111111111 -
b1111111111111111 .
#160000
b1 "
b1 ,
b111 $
b111 *
b1010 %
b1010 +
b101 #
b101 )
b10001 (
b10000 /
#170000
1!
b0 "
b0 ,
b1010 #
b1010 )
b10010 (
b10001 /
b1 -
b1 .
#180000
b11 %
b11 +
b1111 #
b1111 )
b10011 (
b10010 /
b0 -
b0 .
#190000
b1 $
b1 *
b101 %
b101 +
b101 #
b101 )
b10100 (
b10011 /
#200000
0!
b101 "
b101 ,
b1010 #
b1010 )
b10101 (
b10100 2
#210000
1!
b0 "
b0 ,
b10 $
b10 *
b1111111111111111 #
b1111111111111111 )
b10110 (
b10101 2
00
01
#220000
0!
b10000000110 "
b10000000110 ,
b0 $
b0 *
b1100000100 %
b1100000100 +
b100000010 #
b100000010 )
1&
b10111 (
b10110 2
10
11
#230000
1!
b0 "
b0 ,
b1 %
b1 +
b11111111 #
b11111111 )
b11000 (
b10111 /
b10000000110 -
b10000000110 .
#240000
0!
b11 "
b11 ,
b100000010 %
b100000010 +
b1111111100000001 #
b1111111100000001 )
b11001 (
b11000 2
b11000 /
b0 -
b0 .
#250000
b1111100101110 "
b1111100101110 ,
b1 $
b1 *
b10000000110000 #
b10000000110000 )
b11010 (
b11001 /
b11 -
b11 .
#260000
b10111111111 "
b10111111111 ,
b1 %
b1 +
b10100000000 #
b10100000000 )
b11011 (
b11010 /
b1111100101110 -
b1111100101110 .
#270000
b1111000011110000 "
b1111000011110000 ,
b10 $
b10 *
b111100001111 #
b111100001111 )
b11100 (
b11011 /
b10111111111 -
b10111111111 .
#280000
b100000000100 "
b100000000100 ,
b11 $
b11 *
b1100000001 %
b1100000001 +
b100000010 #
b100000010 )
b11101 (
b11100 /
b1111000011110000 -
b1111000011110000 .
#290000
b100000000010000 "
b100000000010000 ,
b100 $
b100 *
b100000010 %
b100000010 +
b1000000001000000 #
b1000000001000000 )
b11110 (
b11101 /
b100000000100 -
b100000000100 .
#300000
1!
b0 "
b0 ,
b101 $
b101 *
b111100001111 %
b111100001111 +
b1111000011110000 #
b1111000011110000 )
b11111 (
b11110 /
b100000000010000 -
b100000000010000 .
#310000
0!
b1111111111111111 "
b1111111111111111 ,
b110 $
b110 *
b100000 (
b11111 2
b11111 /
b0 -
b0 .
#320000
b100000001 "
b100000001 ,
b111 $
b111 *
b1100000100 %
b1100000100 +
b1000000011 #
b1000000011 )
b100001 (
b100000 /
b1111111111111111 -
b1111111111111111 .
#330000
1!
b0 "
b0 ,
b1000000100 %
b1000000100 +
b1100000101 #
b1100000101 )
b100010 (
b100001 /
b100000001 -
b100000001 .
#340000
0!
b100000000 "
b100000000 ,
b1100000100 %
b1100000100 +
b1000000101 #
b1000000101 )
b100011 (
b100010 /
b0 -
b0 .
#350000
b100100 (
b100011 /
b100000000 -
b100000000 .
