YODA/waves/star.vcd
$date
	Mon May 18 11:01:57 2026
$end
$version
	Icarus Verilog
$end
$timescale
	1ps
$end
$scope module StarCore1_tb $end
$var wire 16 ! gpio_out [15:0] $end
$var reg 1 " clk $end
$var reg 16 # gpio_in [15:0] $end
$var reg 1 $ rst_n $end
$var integer 32 % fail_count [31:0] $end
$var integer 32 & test_id [31:0] $end
$scope module uut $end
$var wire 1 " clk $end
$var wire 16 ' gpio_in [15:0] $end
$var wire 1 $ rst_n $end
$var wire 1 ( vector_mode $end
$var wire 1 ) reg_write $end
$var wire 1 * reg_dst $end
$var wire 4 + opcode [3:0] $end
$var wire 1 , mem_write $end
$var wire 1 - mem_to_reg $end
$var wire 1 . mem_read $end
$var wire 1 / jump $end
$var wire 16 0 gpio_out [15:0] $end
$var wire 1 1 bne $end
$var wire 1 2 beq $end
$var wire 1 3 alu_src $end
$var wire 2 4 alu_op [1:0] $end
$scope module CU $end
$var wire 4 5 opcode [3:0] $end
$var reg 2 6 alu_op [1:0] $end
$var reg 1 3 alu_src $end
$var reg 1 2 beq $end
$var reg 1 1 bne $end
$var reg 1 / jump $end
$var reg 1 . mem_read $end
$var reg 1 - mem_to_reg $end
$var reg 1 , mem_write $end
$var reg 1 * reg_dst $end
$var reg 1 ) reg_write $end
$var reg 1 ( vector_mode $end
$upscope $end
$scope module DU $end
$var wire 2 7 alu_op [1:0] $end
$var wire 1 3 alu_src $end
$var wire 1 2 beq $end
$var wire 1 8 beq_taken $end
$var wire 1 1 bne $end
$var wire 1 9 bne_taken $end
$var wire 1 " clk $end
$var wire 16 : gpio_in [15:0] $end
$var wire 1 / jump $end
$var wire 1 . mem_read $end
$var wire 1 - mem_to_reg $end
$var wire 1 , mem_write $end
$var wire 1 * reg_dst $end
$var wire 1 ) reg_write $end
$var wire 1 $ rst_n $end
$var wire 1 ( vector_mode $end
$var wire 1 ; zero_flag $end
$var wire 3 < reg_write_dest [2:0] $end
$var wire 16 = reg_write_data [15:0] $end
$var wire 16 > reg_read_data_2 [15:0] $end
$var wire 16 ? reg_read_data_1 [15:0] $end
$var wire 3 @ reg_read_addr_2 [2:0] $end
$var wire 3 A reg_read_addr_1 [2:0] $end
$var wire 1 B ram_write_en $end
$var wire 16 C ram_read_data [15:0] $end
$var wire 16 D pc_next [15:0] $end
$var wire 16 E pc_jump [15:0] $end
$var wire 16 F pc_branch [15:0] $end
$var wire 16 G pc_after_branch [15:0] $end
$var wire 16 H pc2 [15:0] $end
$var wire 4 I opcode [3:0] $end
$var wire 13 J jump_target [12:0] $end
$var wire 16 K instr [15:0] $end
$var wire 1 L gpio_write_en $end
$var wire 16 M gpio_read_data [15:0] $end
$var wire 16 N gpio_out [15:0] $end
$var wire 16 O ext_im [15:0] $end
$var wire 16 P combined_mem_read_data [15:0] $end
$var wire 16 Q alu_result [15:0] $end
$var wire 16 R alu_operand_b [15:0] $end
$var wire 3 S alu_control [2:0] $end
$var reg 16 T pc_current [15:0] $end
$scope module alu_ctrl $end
$var wire 2 U ALUOp [1:0] $end
$var wire 4 V Opcode [3:0] $end
$var wire 3 W funct [2:0] $end
$var wire 6 X control_in [5:0] $end
$var reg 3 Y ALU_Cnt [2:0] $end
$upscope $end
$scope module alu_unit $end
$var wire 3 Z alu_control [2:0] $end
$var wire 16 [ b [15:0] $end
$var wire 1 ( vector_mode $end
$var wire 1 ; zero $end
$var wire 16 \ a [15:0] $end
$var reg 16 ] result [15:0] $end
$upscope $end
$scope module dm $end
$var wire 1 " clk $end
$var wire 16 ^ mem_access_addr [15:0] $end
$var wire 1 . mem_read $end
$var wire 1 B mem_write_en $end
$var wire 3 _ ram_addr [2:0] $end
$var wire 16 ` mem_write_data [15:0] $end
$var wire 16 a mem_read_data [15:0] $end
$upscope $end
$scope module gpio_unit $end
$var wire 1 " clk $end
$var wire 16 b gpio_in [15:0] $end
$var wire 16 c gpio_out [15:0] $end
$var wire 16 d read_data [15:0] $end
$var wire 1 $ rst_n $end
$var wire 1 L write_en $end
$var wire 16 e write_data [15:0] $end
$var reg 16 f gpio_in_sync1 [15:0] $end
$var reg 16 g gpio_in_sync2 [15:0] $end
$var reg 16 h gpio_out_reg [15:0] $end
$upscope $end
$scope module im $end
$var wire 16 i instruction [15:0] $end
$var wire 16 j pc [15:0] $end
$var wire 4 k rom_addr [3:0] $end
$upscope $end
$scope module reg_file $end
$var wire 1 " clk $end
$var wire 3 l reg_read_addr_1 [2:0] $end
$var wire 3 m reg_read_addr_2 [2:0] $end
$var wire 16 n reg_read_data_1 [15:0] $end
$var wire 16 o reg_read_data_2 [15:0] $end
$var wire 16 p reg_write_data [15:0] $end
$var wire 3 q reg_write_dest [2:0] $end
$var wire 1 ) reg_write_en $end
$var integer 32 r i [31:0] $end
$upscope $end
$upscope $end
$upscope $end
$scope task check16 $end
$var reg 16 s expected [15:0] $end
$var reg 16 t got [15:0] $end
$var reg 64 u id [63:0] $end
$upscope $end
$upscope $end
$enddefinitions $end
$comment Show the parameter values. $end
$dumpall
$end
#0
$dumpvars
bx u
bx t
bx s
b1000 r
b1 q
b1 p
b0 o
b0 n
b1 m
b0 l
b0 k
b0 j
b1000000 i
bx h
bx g
bx f
b0 e
bx d
bx c
b100 b
b1 a
b0 `
b0 _
b0 ^
b0 ]
b0 \
b0 [
b0 Z
b0 Y
b100000 X
b0 W
b0 V
b10 U
b0 T
b0 S
b0 R
b0 Q
b1 P
b0 O
bx N
bx M
0L
b1000000 K
b10000000 J
b0 I
b10 H
b10 G
b10 F
b10000000 E
b10 D
b1 C
0B
b0 A
b1 @
b0 ?
b0 >
b1 =
b1 <
1;
b100 :
09
08
b10 7
b10 6
b0 5
b10 4
13
02
01
bx 0
0/
1.
1-
0,
b0 +
0*
1)
0(
b100 '
b1 &
b0 %
1$
b100 #
0"
bx !
$end
#5000
b10 =
b10 p
b0 P
b10 _
b110 <
b110 q
b0 C
b0 a
b1 R
b1 [
0;
b10 Q
b10 ]
b10 ^
1*
b0 4
b0 6
b0 7
b0 U
0.
1)
0-
03
b100 D
b10011100000 E
b10011100000 J
b10 X
b10 V
b1111111111110000 O
b1 ?
b1 \
b1 n
b1 A
b1 l
b10 +
b10 5
b10 I
b100 G
b10001001110000 K
b10001001110000 i
b1 k
b1 >
b1 `
b1 e
b1 o
b1111111111100100 F
b100 H
b10 T
b10 j
b100 f
1"
#10000
0"
#15000
b100 P
b0 _
b1 C
b1 a
b100 =
b100 p
b1000 R
b1000 [
b1000 Q
b1000 ]
b1000 ^
b10 <
b10 q
b10 4
b10 6
b10 7
b10 U
1.
1-
13
1)
0*
b110 D
b100010000 E
b100010000 J
b100000 X
b0 V
b1000 O
b0 >
b0 `
b0 e
b0 o
b10 @
b10 m
b0 ?
b0 \
b0 n
b0 A
b0 l
b0 +
b0 5
b0 I
b110 G
b10001000 K
b10001000 i
b10 k
b10110 F
b110 H
b100 T
b100 j
b100 M
b100 d
b100 g
1"
#20000
0"
#25000
b101 _
b0 P
b0 C
b0 a
b101 =
b101 p
b1 R
b1 [
b101 Q
b101 ]
b101 ^
b11 <
b11 q
1*
b0 4
b0 6
b0 7
b0 U
0.
1)
0-
03
b1000 D
b100010110000 E
b100010110000 J
b10 X
b10 V
b11000 O
b1 @
b1 m
b100 ?
b100 \
b100 n
b10 A
b10 l
b10 +
b10 5
b10 I
b1000 G
b10010001011000 K
b10010001011000 i
b11 k
b1 >
b1 `
b1 e
b1 o
b111000 F
b1000 H
b110 T
b110 j
1"
#30000
0"
#35000
b110000000 P
b1 _
b110000000 C
b110000000 a
b110000000 =
b110000000 p
b1 Q
b1 ]
b1 ^
b100 <
b100 q
b10 4
b10 6
b10 7
b10 U
1.
1-
13
1)
0*
b1010 D
b1000000010 E
b1000000010 J
b1 W
b100000 X
b0 V
b1 O
b0 >
b0 `
b0 e
b0 o
b100 @
b100 m
b0 ?
b0 \
b0 n
b0 A
b0 l
b0 +
b0 5
b0 I
b1010 G
b100000001 K
b100000001 i
b100 k
b1100 F
b1010 H
b1000 T
b1000 j
1"
#40000
0"
#45000
b0 _
b0 P
b101 <
b101 q
b0 C
b0 a
b1000000000 =
b1000000000 p
b110000000 R
b110000000 [
b1000000000 Q
b1000000000 ]
b1000000000 ^
1(
1*
b11 4
b11 6
b11 7
b11 U
0.
1)
0-
03
b1100 D
b1001001010000 E
b1001001010000 J
b0 W
b111110 X
b1110 V
b1111111111101000 O
b110000000 ?
b110000000 \
b110000000 n
b100 A
b100 l
b1110 +
b1110 5
b1110 I
b1100 G
b1110100100101000 K
b1110100100101000 i
b101 k
b110000000 >
b110000000 `
b110000000 e
b110000000 o
b1111111111011100 F
b1100 H
b1010 T
b1010 j
1"
#50000
0"
#55000
b101000000 =
b101000000 p
b101000000 Q
b101000000 ]
b101000000 ^
b100 S
b100 Y
b100 Z
b1 R
b1 [
b111 <
b111 q
b1110 D
b1000011111000 E
b1000011111000 J
b100 W
b1111111111111100 O
b1 >
b1 `
b1 e
b1 o
b1 @
b1 m
b1110 G
b1110100001111100 K
b1110100001111100 i
b110 k
b110 F
b1110 H
b1100 T
b1100 j
1"
#60000
0"
#65000
b100 P
1L
b1000 =
b1000 p
0B
b0 S
b0 Y
b0 Z
b1000 R
b1000 [
0;
b1000 Q
b1000 ]
b1000 ^
b101 <
b101 q
13
1,
0(
b10 4
b10 6
b10 7
b10 U
0)
0*
b10000 D
b1010010000 E
b1010010000 J
b0 W
b100001 X
b1 V
b1000 O
b1000000000 >
b1000000000 `
b1000000000 e
b1000000000 o
b101 @
b101 m
b0 ?
b0 \
b0 n
b0 A
b0 l
b1 +
b1 5
b1 I
b10000 G
b1000101001000 K
b1000101001000 i
b111 k
b100000 F
b10000 H
b1110 T
b1110 j
1"
#70000
0"
#75000
b0 =
b0 p
b0 P
1;
b0 Q
b0 ]
b0 ^
0L
b0 R
b0 [
b0 <
b0 q
1/
b0 4
b0 6
b0 7
b0 U
0,
03
b10000 D
b10000 E
b10000 J
b1101 X
b1101 V
b0 >
b0 `
b0 e
b0 o
b0 @
b0 m
b1101 +
b1101 5
b1101 I
b10010 G
b1101000000001000 K
b1101000000001000 i
b1000 k
b100010 F
b10010 H
b10000 T
b10000 j
b1000000000 !
b1000000000 0
b1000000000 N
b1000000000 c
b1000000000 h
1"
#80000
0"
#85000
1"
#90000
0"
#95000
1"
#100000
0"
#105000
1"
#110000
0"
#115000
1"
#120000
0"
#125000
1"
#130000
0"
b1001 &
b1000 u
b1000000000 s
b1000000000 t
